[
    {
        "job_position": "Senior Engineer (Test Automation)",
        "company": "The Hong Kong Jockey Club",
        "district": "ST TP",
        "salary": "$30k - $40k",
        "href": "https://hk.jobsdb.com/hk/en/job/job-100003007790519?searchRequestToken=21c23a80-2fef-4e0c-a4c0-1c92b4d80f0b&sectionRank=30&jobId=jobsdb-hk-job-100003007790519",
        "resource_from": "jobsDB"
    },
    {
        "job_position": "Technical Lead (Test Automation)",
        "company": "The Hong Kong Jockey Club",
        "district": "ST TP",
        "salary": "$30k - $40k",
        "href": "https://hk.jobsdb.com/hk/en/job/job-100003007790520?searchRequestToken=21c23a80-2fef-4e0c-a4c0-1c92b4d80f0b&sectionRank=29&jobId=jobsdb-hk-job-100003007790520",
        "resource_from": "jobsDB"
    },
    {
        "job_position": "Assistant Computer Officer (carrying the job title of ‘Senior Analyst Programmer/Java Developer’)",
        "company": "The Chinese University of Hong Kong",
        "district": "ST TP",
        "salary": "$30k - $40k",
        "href": "https://hk.jobsdb.com/hk/en/job/job-100003007778915?searchRequestToken=21c23a80-2fef-4e0c-a4c0-1c92b4d80f0b&sectionRank=28&jobId=jobsdb-hk-job-100003007778915",
        "resource_from": "jobsDB"
    },
    {
        "job_position": "Senior R&D Engineer (Network)",
        "company": "Logistics and Supply Chain MultiTech R&D Centre Limited",
        "district": "ST TP",
        "salary": "$30k - $40k",
        "href": "https://hk.jobsdb.com/hk/en/job/job-100003007788818?searchRequestToken=21c23a80-2fef-4e0c-a4c0-1c92b4d80f0b&sectionRank=27&jobId=jobsdb-hk-job-100003007788818",
        "resource_from": "jobsDB"
    },
    {
        "job_position": "Senior Engineer (PI), 5G Systems and Application Development (Mobile Broadband)",
        "company": "Hong Kong Applied Science and Technology Research Institute Company Limited (ASTRI)",
        "district": "ST TP",
        "salary": "$30k - $40k",
        "href": "https://hk.jobsdb.com/hk/en/job/job-100003007756062?searchRequestToken=21c23a80-2fef-4e0c-a4c0-1c92b4d80f0b&sectionRank=26&jobId=jobsdb-hk-job-100003007756062",
        "resource_from": "jobsDB"
    },
    {
        "job_position": "Senior Engineer (PI), 5G Systems and Application Development (Vehicle-to-Everything Communications)",
        "company": "Hong Kong Applied Science and Technology Research Institute Company Limited (ASTRI)",
        "district": "ST TP",
        "salary": "$30k - $40k",
        "href": "https://hk.jobsdb.com/hk/en/job/job-100003007756060?searchRequestToken=21c23a80-2fef-4e0c-a4c0-1c92b4d80f0b&sectionRank=25&jobId=jobsdb-hk-job-100003007756060",
        "resource_from": "jobsDB"
    },
    {
        "job_position": "Senior Engineer (PI), Image Processing",
        "company": "Hong Kong Applied Science and Technology Research Institute Company Limited",
        "district": "ST TP",
        "salary": "$30k - $40k",
        "href": "https://hk.jobsdb.com/hk/en/job/job-100003007758920?searchRequestToken=21c23a80-2fef-4e0c-a4c0-1c92b4d80f0b&sectionRank=24&jobId=jobsdb-hk-job-100003007758920",
        "resource_from": "jobsDB"
    },
    {
        "job_position": "Mobile App Developer",
        "company": "SP Infinite Technology Limited",
        "district": "ST TP",
        "salary": "$30k - $40k",
        "href": "https://hk.jobsdb.com/hk/en/job/job-100003007765876?searchRequestToken=21c23a80-2fef-4e0c-a4c0-1c92b4d80f0b&sectionRank=23&jobId=jobsdb-hk-job-100003007765876",
        "resource_from": "jobsDB"
    },
    {
        "job_position": "Senior Software Engineer / Researcher",
        "company": "Achieve Education Limited",
        "district": "ST TP",
        "salary": "$30k - $40k",
        "href": "https://hk.jobsdb.com/hk/en/job/job-100003007766178?searchRequestToken=21c23a80-2fef-4e0c-a4c0-1c92b4d80f0b&sectionRank=22&jobId=jobsdb-hk-job-100003007766178",
        "resource_from": "jobsDB"
    },
    {
        "job_position": "URGENT! - Analyst Programmer / Programmer (JAVA / 大學 / 大埔 ) (FRESH GRAD WELCOME)",
        "company": "Elee Consulting Limited",
        "district": "ST TP",
        "salary": "$30k - $40k",
        "href": "https://hk.jobsdb.com/hk/en/job/job-100003007768286?searchRequestToken=21c23a80-2fef-4e0c-a4c0-1c92b4d80f0b&sectionRank=21&jobId=jobsdb-hk-job-100003007768286",
        "resource_from": "jobsDB"
    },
    {
        "job_position": "Analyst Programmer (PHP, Project Web, Front-end responsive)",
        "company": "Union Medical Centre Ltd",
        "district": "ST TP",
        "salary": "$30k - $40k",
        "href": "https://hk.jobsdb.com/hk/en/job/job-100003007761428?searchRequestToken=21c23a80-2fef-4e0c-a4c0-1c92b4d80f0b&sectionRank=20&jobId=jobsdb-hk-job-100003007761428",
        "resource_from": "jobsDB"
    },
    {
        "job_position": "Senior Software Engineer",
        "company": "Infotronic Technology Limited",
        "district": "ST TP",
        "salary": "$30k - $40k",
        "href": "https://hk.jobsdb.com/hk/en/job/job-100003007779587?searchRequestToken=21c23a80-2fef-4e0c-a4c0-1c92b4d80f0b&sectionRank=19&jobId=jobsdb-hk-job-100003007779587",
        "resource_from": "jobsDB"
    },
    {
        "job_position": "URGENT! - Analyst Programmer / Programmer (JAVA / 大學 / 大埔 ) (FRESH GRAD WELCOME)",
        "company": "Elee Consulting Limited",
        "district": "ST TP",
        "salary": "$30k - $40k",
        "href": "https://hk.jobsdb.com/hk/en/job/job-100003007775240?searchRequestToken=21c23a80-2fef-4e0c-a4c0-1c92b4d80f0b&sectionRank=18&jobId=jobsdb-hk-job-100003007775240",
        "resource_from": "jobsDB"
    },
    {
        "job_position": "Analyst Programmer - Backend",
        "company": "Computime Ltd",
        "district": "ST TP",
        "salary": "$30k - $40k",
        "href": "https://hk.jobsdb.com/hk/en/job/job-100003007776187?searchRequestToken=21c23a80-2fef-4e0c-a4c0-1c92b4d80f0b&sectionRank=17&jobId=jobsdb-hk-job-100003007776187",
        "resource_from": "jobsDB"
    },
    {
        "job_position": "Analyst Programmer",
        "company": "Convenience Retail Asia Limited",
        "district": "ST TP",
        "salary": "$30k - $40k",
        "href": "https://hk.jobsdb.com/hk/en/job/job-100003007781393?searchRequestToken=21c23a80-2fef-4e0c-a4c0-1c92b4d80f0b&sectionRank=16&jobId=jobsdb-hk-job-100003007781393",
        "resource_from": "jobsDB"
    },
    {
        "job_position": "Senior Engineer (PI), Software Development",
        "company": "Hong Kong Applied Science and Technology Research Institute Company Limited (ASTRI)",
        "district": "ST TP",
        "salary": "$30k - $40k",
        "href": "https://hk.jobsdb.com/hk/en/job/job-100003007775699?searchRequestToken=21c23a80-2fef-4e0c-a4c0-1c92b4d80f0b&sectionRank=15&jobId=jobsdb-hk-job-100003007775699",
        "resource_from": "jobsDB"
    },
    {
        "job_position": "Senior Software Engineer (ITRLS/SP3d)",
        "company": "The Hong Kong Jockey Club",
        "district": "ST TP",
        "salary": "$30k - $40k",
        "href": "https://hk.jobsdb.com/hk/en/job/job-100003007779538?searchRequestToken=21c23a80-2fef-4e0c-a4c0-1c92b4d80f0b&sectionRank=14&jobId=jobsdb-hk-job-100003007779538",
        "resource_from": "jobsDB"
    },
    {
        "job_position": "Senior Engineer (PI), Software Development",
        "company": "Hong Kong Applied Science and Technology Research Institute Company Limited (ASTRI)",
        "district": "ST TP",
        "salary": "$30k - $40k",
        "href": "https://hk.jobsdb.com/hk/en/job/job-100003007778488?searchRequestToken=21c23a80-2fef-4e0c-a4c0-1c92b4d80f0b&sectionRank=13&jobId=jobsdb-hk-job-100003007778488",
        "resource_from": "jobsDB"
    },
    {
        "job_position": "Programmer",
        "company": "Matrix Research Limited",
        "district": "ST TP",
        "salary": "$30k - $40k",
        "href": "https://hk.jobsdb.com/hk/en/job/job-100003007777066?searchRequestToken=21c23a80-2fef-4e0c-a4c0-1c92b4d80f0b&sectionRank=12&jobId=jobsdb-hk-job-100003007777066",
        "resource_from": "jobsDB"
    },
    {
        "job_position": "Senior Engineer (PI), Software Development",
        "company": "Hong Kong Applied Science and Technology Research Institute Company Limited (ASTRI)",
        "district": "ST TP",
        "salary": "$30k - $40k",
        "href": "https://hk.jobsdb.com/hk/en/job/job-100003007777329?searchRequestToken=21c23a80-2fef-4e0c-a4c0-1c92b4d80f0b&sectionRank=11&jobId=jobsdb-hk-job-100003007777329",
        "resource_from": "jobsDB"
    },
    {
        "job_position": "Senior Software Developer (J2EE architecture | Java web application development)",
        "company": "JAC Recruitment Hong Kong Co., Limited",
        "district": "ST TP",
        "salary": "$30k - $40k",
        "href": "https://hk.jobsdb.com/hk/en/job/job-100003007777725?searchRequestToken=21c23a80-2fef-4e0c-a4c0-1c92b4d80f0b&sectionRank=10&jobId=jobsdb-hk-job-100003007777725",
        "resource_from": "jobsDB"
    },
    {
        "job_position": "Computer Technician II(s) (Analyst Programmer/Developer/Back-end/Ruby on Rails/PHP/Java)",
        "company": "The Chinese University of Hong Kong",
        "district": "ST TP",
        "salary": "$30k - $40k",
        "href": "https://hk.jobsdb.com/hk/en/job/job-100003007778908?searchRequestToken=21c23a80-2fef-4e0c-a4c0-1c92b4d80f0b&sectionRank=9&jobId=jobsdb-hk-job-100003007778908",
        "resource_from": "jobsDB"
    },
    {
        "job_position": "高薪招聘 - 開發工程師（需附上中文簡歷）",
        "company": "Pony Technology Development Limited",
        "district": "ST TP",
        "salary": "$30k - $40k",
        "href": "https://hk.jobsdb.com/hk/en/job/job-100003007778023?searchRequestToken=21c23a80-2fef-4e0c-a4c0-1c92b4d80f0b&sectionRank=8&jobId=jobsdb-hk-job-100003007778023",
        "resource_from": "jobsDB"
    },
    {
        "job_position": "運維工程師 (需附上中文簡歷）",
        "company": "Pony Technology Development Limited",
        "district": "ST TP",
        "salary": "$30k - $40k",
        "href": "https://hk.jobsdb.com/hk/en/job/job-100003007778004?searchRequestToken=21c23a80-2fef-4e0c-a4c0-1c92b4d80f0b&sectionRank=7&jobId=jobsdb-hk-job-100003007778004",
        "resource_from": "jobsDB"
    },
    {
        "job_position": "Mobile App Developer",
        "company": "SP Infinite Technology Limited",
        "district": "ST TP",
        "salary": "$30k - $40k",
        "href": "https://hk.jobsdb.com/hk/en/job/job-100003007785012?searchRequestToken=21c23a80-2fef-4e0c-a4c0-1c92b4d80f0b&sectionRank=6&jobId=jobsdb-hk-job-100003007785012",
        "resource_from": "jobsDB"
    },
    {
        "job_position": "Senior Software Engineer",
        "company": "Fujikon Industrial Co Ltd",
        "district": "ST TP",
        "salary": "$30k - $40k",
        "href": "https://hk.jobsdb.com/hk/en/job/job-100003007787922?searchRequestToken=21c23a80-2fef-4e0c-a4c0-1c92b4d80f0b&sectionRank=5&jobId=jobsdb-hk-job-100003007787922",
        "resource_from": "jobsDB"
    },
    {
        "job_position": "Computer Technician II(s) (Analyst Programmer/Front-end/Back-end/Ruby on Rails/PHP/Java Developer)",
        "company": "The Chinese University of Hong Kong",
        "district": "ST TP",
        "salary": "$30k - $40k",
        "href": "https://hk.jobsdb.com/hk/en/job/job-100003007778896?searchRequestToken=21c23a80-2fef-4e0c-a4c0-1c92b4d80f0b&sectionRank=4&jobId=jobsdb-hk-job-100003007778896",
        "resource_from": "jobsDB"
    },
    {
        "job_position": "Mobile App Developer",
        "company": "SP Infinite Technology Limited",
        "district": "ST TP",
        "salary": "$30k - $40k",
        "href": "https://hk.jobsdb.com/hk/en/job/job-100003007790299?searchRequestToken=21c23a80-2fef-4e0c-a4c0-1c92b4d80f0b&sectionRank=3&jobId=jobsdb-hk-job-100003007790299",
        "resource_from": "jobsDB"
    },
    {
        "job_position": "Fullstack | Full Stack Programmer/Developer - E-commerce Platform",
        "company": "Seal Technology (Hong Kong) Limited",
        "district": "ST TP",
        "salary": "$30k - $40k",
        "href": "https://hk.jobsdb.com/hk/en/job/job-100003007779750?searchRequestToken=21c23a80-2fef-4e0c-a4c0-1c92b4d80f0b&sectionRank=2&jobId=jobsdb-hk-job-100003007779750",
        "resource_from": "jobsDB"
    },
    {
        "job_position": "Senior Software Developer",
        "company": "Radica Systems Limited",
        "district": "ST TP",
        "salary": "$30k - $40k",
        "href": "https://hk.jobsdb.com/hk/en/job/job-100003007789167?searchRequestToken=21c23a80-2fef-4e0c-a4c0-1c92b4d80f0b&sectionRank=1&jobId=jobsdb-hk-job-100003007789167",
        "resource_from": "jobsDB"
    }
]
