[
    {
        "job_position": "Senior / Software / Applcation / Web Developer",
        "company": "Fresh Up Group Limited",
        "district": "TW KT",
        "salary": "< $20k",
        "href": "https://hk.jobsdb.com/hk/en/job/senior-software-applcation-web-developer-100003007751291?searchRequestToken=32973270-7dc2-46f8-996f-d092bae533f7&sectionRank=9&jobId=100003007751291",
        "resource_from": "jobsDB"
    },
    {
        "job_position": "Web App / Mobile App Developer",
        "company": "Gorilla Group Limited",
        "district": "TW KT",
        "salary": "< $20k",
        "href": "https://hk.jobsdb.com/hk/en/job/web-app-mobile-app-developer-100003007771267?searchRequestToken=32973270-7dc2-46f8-996f-d092bae533f7&sectionRank=8&jobId=100003007771267",
        "resource_from": "jobsDB"
    },
    {
        "job_position": "Senior/Web programmer (PHP)",
        "company": "Kicks-Crew Company Limited",
        "district": "TW KT",
        "salary": "< $20k",
        "href": "https://hk.jobsdb.com/hk/en/job/senior-web-programmer-100003007774065?searchRequestToken=32973270-7dc2-46f8-996f-d092bae533f7&sectionRank=7&jobId=100003007774065",
        "resource_from": "jobsDB"
    },
    {
        "job_position": "Web App / Mobile App Developer",
        "company": "Gorilla Group Limited",
        "district": "TW KT",
        "salary": "< $20k",
        "href": "https://hk.jobsdb.com/hk/en/job/web-app-mobile-app-developer-100003007782059?searchRequestToken=32973270-7dc2-46f8-996f-d092bae533f7&sectionRank=6&jobId=100003007782059",
        "resource_from": "jobsDB"
    },
    {
        "job_position": "Junior Programmer / Senior Web Developer",
        "company": "Hong Thai Travel Services Ltd",
        "district": "TW KT",
        "salary": "< $20k",
        "href": "https://hk.jobsdb.com/hk/en/job/junior-programmer-senior-web-developer-100003007783565?searchRequestToken=32973270-7dc2-46f8-996f-d092bae533f7&sectionRank=5&jobId=100003007783565",
        "resource_from": "jobsDB"
    },
    {
        "job_position": "Web Programmer",
        "company": "BridgeBuilder Company Limited",
        "district": "TW KT",
        "salary": "< $20k",
        "href": "https://hk.jobsdb.com/hk/en/job/web-programmer-100003007784125?searchRequestToken=32973270-7dc2-46f8-996f-d092bae533f7&sectionRank=4&jobId=100003007784125",
        "resource_from": "jobsDB"
    },
    {
        "job_position": "Senior Web Programmer",
        "company": "Surpass Solution (Hong Kong) Limited",
        "district": "TW KT",
        "salary": "< $20k",
        "href": "https://hk.jobsdb.com/hk/en/job/senior-web-programmer-100003007784217?searchRequestToken=32973270-7dc2-46f8-996f-d092bae533f7&sectionRank=3&jobId=100003007784217",
        "resource_from": "jobsDB"
    },
    {
        "job_position": "Junior Web Programmer / Web Programmer Trainee",
        "company": "Surpass Solution (Hong Kong) Limited",
        "district": "TW KT",
        "salary": "< $20k",
        "href": "https://hk.jobsdb.com/hk/en/job/junior-web-programmer-web-programmer-trainee-100003007784219?searchRequestToken=32973270-7dc2-46f8-996f-d092bae533f7&sectionRank=2&jobId=100003007784219",
        "resource_from": "jobsDB"
    },
    {
        "job_position": "Web Programmer / Web Developer (Experience C#, Java - Fresh Grad welcome)",
        "company": "Besteam Personnel Consultancy Limited",
        "district": "TW KT",
        "salary": "< $20k",
        "href": "https://hk.jobsdb.com/hk/en/job/web-programmer-web-developer-100003007792744?searchRequestToken=32973270-7dc2-46f8-996f-d092bae533f7&sectionRank=1&jobId=100003007792744",
        "resource_from": "jobsDB"
    }
]
