[
    {
        "job_position": "Java Analyst Programmer ($35K or above)",
        "company": "CL Technical Services Limited 日達電腦服務有限公司",
        "district": "HK Island",
        "salary": "< $20k",
        "href": "https://www.jobmarket.com.hk/Job/CurrentJob?Jobid=1895067",
        "resource_from": "jobMarket"
    },
    {
        "job_position": "I.T. Support/I.T. Officer/Programmer/System Analyst/I.T. Mgr",
        "company": "Win Paradise (Personnel Consultancy) 獵佳有限公司",
        "district": "HK Island",
        "salary": "< $20k",
        "href": "https://www.jobmarket.com.hk/Job/CurrentJob?Jobid=1895338",
        "resource_from": "jobMarket"
    },
    {
        "job_position": "Junior Programmer / Programmer (Java)",
        "company": "CL Technical Services Limited 日達電腦服務有限公司",
        "district": "HK Island",
        "salary": "< $20k",
        "href": "https://www.jobmarket.com.hk/Job/CurrentJob?Jobid=1885307",
        "resource_from": "jobMarket"
    },
    {
        "job_position": "Junior Programmer (Java / .Net, welcome fresh grad)",
        "company": "CL Technical Services Limited 日達電腦服務有限公司",
        "district": "HK Island",
        "salary": "< $20k",
        "href": "https://www.jobmarket.com.hk/Job/CurrentJob?Jobid=1895574",
        "resource_from": "jobMarket"
    },
    {
        "job_position": "Java Analyst Programmer ($35K or above)",
        "company": "CL Technical Services Limited 日達電腦服務有限公司",
        "district": "HK Island",
        "salary": "< $20k",
        "href": "https://www.jobmarket.com.hk/Job/CurrentJob?Jobid=1896401",
        "resource_from": "jobMarket"
    },
    {
        "job_position": "Junior Programmer / Programmer (Java)",
        "company": "CL Technical Services Limited 日達電腦服務有限公司",
        "district": "HK Island",
        "salary": "< $20k",
        "href": "https://www.jobmarket.com.hk/Job/CurrentJob?Jobid=1885308",
        "resource_from": "jobMarket"
    },
    {
        "job_position": "Junior Programmer (Java / .Net, welcome fresh grad)",
        "company": "CL Technical Services Limited 日達電腦服務有限公司",
        "district": "HK Island",
        "salary": "< $20k",
        "href": "https://www.jobmarket.com.hk/Job/CurrentJob?Jobid=1896559",
        "resource_from": "jobMarket"
    },
    {
        "job_position": "I.T. Support/I.T. Officer/Programmer/System Analyst/I.T. Mgr",
        "company": "Win Paradise (Personnel Consultancy) 獵佳有限公司",
        "district": "HK Island",
        "salary": "< $20k",
        "href": "https://www.jobmarket.com.hk/Job/CurrentJob?Jobid=1897379",
        "resource_from": "jobMarket"
    },
    {
        "job_position": "Junior Programmer / Programmer (Java)",
        "company": "CL Technical Services Limited 日達電腦服務有限公司",
        "district": "HK Island",
        "salary": "< $20k",
        "href": "https://www.jobmarket.com.hk/Job/CurrentJob?Jobid=1885309",
        "resource_from": "jobMarket"
    },
    {
        "job_position": "Junior Programmer (Java / .Net, welcome fresh grad)",
        "company": "CL Technical Services Limited 日達電腦服務有限公司",
        "district": "HK Island",
        "salary": "< $20k",
        "href": "https://www.jobmarket.com.hk/Job/CurrentJob?Jobid=1897850",
        "resource_from": "jobMarket"
    },
    {
        "job_position": "Java Analyst Programmer ($35K or above)",
        "company": "CL Technical Services Limited 日達電腦服務有限公司",
        "district": "HK Island",
        "salary": "< $20k",
        "href": "https://www.jobmarket.com.hk/Job/CurrentJob?Jobid=1899064",
        "resource_from": "jobMarket"
    },
    {
        "job_position": "Programmer / Developer (Java, Bank)",
        "company": "CL Technical Services Limited 日達電腦服務有限公司",
        "district": "HK Island",
        "salary": "< $20k",
        "href": "https://www.jobmarket.com.hk/Job/CurrentJob?Jobid=1899114",
        "resource_from": "jobMarket"
    },
    {
        "job_position": "Junior Programmer / Programmer (Java)",
        "company": "CL Technical Services Limited 日達電腦服務有限公司",
        "district": "HK Island",
        "salary": "< $20k",
        "href": "https://www.jobmarket.com.hk/Job/CurrentJob?Jobid=1885310",
        "resource_from": "jobMarket"
    },
    {
        "job_position": "Junior Programmer (Java / .Net, welcome fresh grad)",
        "company": "CL Technical Services Limited 日達電腦服務有限公司",
        "district": "HK Island",
        "salary": "< $20k",
        "href": "https://www.jobmarket.com.hk/Job/CurrentJob?Jobid=1899648",
        "resource_from": "jobMarket"
    },
    {
        "job_position": "Java Analyst Programmer ($35K or above)",
        "company": "CL Technical Services Limited 日達電腦服務有限公司",
        "district": "HK Island",
        "salary": "< $20k",
        "href": "https://www.jobmarket.com.hk/Job/CurrentJob?Jobid=1901000",
        "resource_from": "jobMarket"
    },
    {
        "job_position": "Java Programmer",
        "company": "CL Technical Services Limited 日達電腦服務有限公司",
        "district": "HK Island",
        "salary": "< $20k",
        "href": "https://www.jobmarket.com.hk/Job/CurrentJob?Jobid=1901004",
        "resource_from": "jobMarket"
    },
    {
        "job_position": "I.T. Support/I.T. Officer/Programmer/System Analyst/I.T. Mgr",
        "company": "Win Paradise (Personnel Consultancy) 獵佳有限公司",
        "district": "HK Island",
        "salary": "< $20k",
        "href": "https://www.jobmarket.com.hk/Job/CurrentJob?Jobid=1901044",
        "resource_from": "jobMarket"
    },
    {
        "job_position": "Junior Programmer / Programmer (Java)",
        "company": "CL Technical Services Limited 日達電腦服務有限公司",
        "district": "HK Island",
        "salary": "< $20k",
        "href": "https://www.jobmarket.com.hk/Job/CurrentJob?Jobid=1885311",
        "resource_from": "jobMarket"
    }
]
